<svg width="17" height="18" viewBox="0 0 17 18" fill="none" xmlns="http://www.w3.org/2000/svg">
<path d="M16.6797 16.833C16.6797 17.3392 16.2693 17.7496 15.763 17.7496H1.09635C0.590097 17.7496 0.179688 17.3392 0.179688 16.833V7.198C0.179688 6.91513 0.310285 6.6481 0.533576 6.47443L7.86695 0.770728C8.19795 0.513273 8.66142 0.513273 8.99243 0.770728L16.3258 6.47443C16.5491 6.6481 16.6797 6.91513 16.6797 7.198V16.833ZM14.8464 15.9163V7.64633L8.42969 2.65559L2.01302 7.64633V15.9163H14.8464Z" fill="white"/>
</svg>
