<svg width="20" height="17" viewBox="0 0 20 17" fill="none" xmlns="http://www.w3.org/2000/svg">
<path d="M10.0004 0.25C14.9431 0.25 19.0553 3.80645 19.9174 8.5C19.0553 13.1935 14.9431 16.75 10.0004 16.75C5.05753 16.75 0.945386 13.1935 0.083252 8.5C0.945386 3.80645 5.05753 0.25 10.0004 0.25ZM10.0004 14.9167C13.883 14.9167 17.2054 12.2143 18.0463 8.5C17.2054 4.78569 13.883 2.08333 10.0004 2.08333C6.11763 2.08333 2.79528 4.78569 1.9543 8.5C2.79528 12.2143 6.11763 14.9167 10.0004 14.9167ZM10.0004 12.625C7.72215 12.625 5.87532 10.7782 5.87532 8.5C5.87532 6.22183 7.72215 4.375 10.0004 4.375C12.2785 4.375 14.1254 6.22183 14.1254 8.5C14.1254 10.7782 12.2785 12.625 10.0004 12.625ZM10.0004 10.7917C11.266 10.7917 12.292 9.76564 12.292 8.5C12.292 7.23436 11.266 6.20833 10.0004 6.20833C8.73472 6.20833 7.70865 7.23436 7.70865 8.5C7.70865 9.76564 8.73472 10.7917 10.0004 10.7917Z" fill="#0B1F33"/>
</svg>
